{
    "docs": [
        {
            "location": "/",
            "text": "Bienvenidos\n\n\nEst\u00e1s viendo la documentaci\u00f3n para usuarios de clux. Mas info \nclux.com.ar\n.\n\n\nIntroducci\u00f3n\n\n\nClux es un proyecto de sistema online que est\u00e1 orientado a visualizar lo que sucede en los clubes sociales y deportivos para lograr reunir la mayor cantidad de personas que comparten un espacio como puede ser un barrio o un pueblo.\n\n\nPara esto el sistema se dedica a 2 grandes partes:\n\n\n\n\nLa parte dedicada a actividades deportivas y sociales.\n\n\nY la parte dedicada a la cultura y la educaci\u00f3n.\n\n\n\n\nAdministrador\n\n\nLa primera versi\u00f3n del sistema (y \u00fanica por el momento) se compone de dos partes: una que ven los visitantes al sitio y otra que ven los administradores del sistema. Lo que ven los visitantes es lo que se sube como informaci\u00f3n en el administrador. Se necesita unas credenciales para ingresar al administrador. Estas credenciales se dan de alta cuando se contrata el servicio, luego el administrador puede generar nuevas credenciales dentro del sistema, para poder dar permisos a otras personas.\n\n\nPara ingresar al administrador podemos:\n\n\n\n\nIr hasta abajo de toda la p\u00e1gina y en el \"footer\" hay un acceso que dice \nAdministrador\n.\n\n\nEscribir la palabra \nadmin\n en la URL asi: \nhttp://tuclub.com.ar/admin\n.\n\n\n\n\nUsuarios y Grupos\n\n\nEl club dispone de caracter\u00edsticas para crear tantos usuarios y grupos de usuarios como quiera. Esta es una buena idea para poder crear grupos de profesores que solo accedan a modificar contenido de sus actividades o por ejemplo permitir a una persona que solo acceda a ingresar im\u00e1genes y noticias.\n\n\nM\u00e1s \ninfo\n.",
            "title": "Bienvenidos"
        },
        {
            "location": "/#bienvenidos",
            "text": "Est\u00e1s viendo la documentaci\u00f3n para usuarios de clux. Mas info  clux.com.ar .",
            "title": "Bienvenidos"
        },
        {
            "location": "/#introduccion",
            "text": "Clux es un proyecto de sistema online que est\u00e1 orientado a visualizar lo que sucede en los clubes sociales y deportivos para lograr reunir la mayor cantidad de personas que comparten un espacio como puede ser un barrio o un pueblo.  Para esto el sistema se dedica a 2 grandes partes:   La parte dedicada a actividades deportivas y sociales.  Y la parte dedicada a la cultura y la educaci\u00f3n.",
            "title": "Introducci\u00f3n"
        },
        {
            "location": "/#administrador",
            "text": "La primera versi\u00f3n del sistema (y \u00fanica por el momento) se compone de dos partes: una que ven los visitantes al sitio y otra que ven los administradores del sistema. Lo que ven los visitantes es lo que se sube como informaci\u00f3n en el administrador. Se necesita unas credenciales para ingresar al administrador. Estas credenciales se dan de alta cuando se contrata el servicio, luego el administrador puede generar nuevas credenciales dentro del sistema, para poder dar permisos a otras personas.  Para ingresar al administrador podemos:   Ir hasta abajo de toda la p\u00e1gina y en el \"footer\" hay un acceso que dice  Administrador .  Escribir la palabra  admin  en la URL asi:  http://tuclub.com.ar/admin .",
            "title": "Administrador"
        },
        {
            "location": "/#usuarios-y-grupos",
            "text": "El club dispone de caracter\u00edsticas para crear tantos usuarios y grupos de usuarios como quiera. Esta es una buena idea para poder crear grupos de profesores que solo accedan a modificar contenido de sus actividades o por ejemplo permitir a una persona que solo acceda a ingresar im\u00e1genes y noticias.  M\u00e1s  info .",
            "title": "Usuarios y Grupos"
        },
        {
            "location": "/como-empezar/",
            "text": "Como empezar\n\n\n\n\nSe debe tener un usuario y una contrase\u00f1a de super-administrador.\n\n\nIngresar al sitio: aparece un formulario que requiere acceso con credenciales.\n\n\nCompletar el formulario con los datos principales del \nclub\n para dise\u00f1ar el estilo del sitio.\n\n\nIr a \nVer el sitio\n en el men\u00fa superior derecho.\n\n\nEntramos a la configuraci\u00f3n del sitio.\n\n\nElegir el club recientemente grabado.\n\n\nUn t\u00edtulo para el sitio: ser\u00e1 el que aparezca en los buscadores.\n\n\nSlider\n es una caracteristica que permite poner varias im\u00e1genes en el encabezado de la p\u00e1gina principal en forma de \ncarousel\n. Dejarlo sin activar ya que ser\u00e1 algo que veas despu\u00e9s.\n\n\nCopiar los enlaces a las redes sociales. Esto desplegar\u00e1 los accesos en el pi\u00e9 de p\u00e1gina.\n\n\nGrabar\n\n\n\n\n\n\nIr a \nVer el sitio\n en el men\u00fa superior derecho.\n\n\nLos siguientes pasos podr\u00edan ser:\n\n\nAgregar \nactividades\n\n\nAgregar \nnoticias\n\n\nAgregar \ncultura",
            "title": "Como empezar"
        },
        {
            "location": "/como-empezar/#como-empezar",
            "text": "Se debe tener un usuario y una contrase\u00f1a de super-administrador.  Ingresar al sitio: aparece un formulario que requiere acceso con credenciales.  Completar el formulario con los datos principales del  club  para dise\u00f1ar el estilo del sitio.  Ir a  Ver el sitio  en el men\u00fa superior derecho.  Entramos a la configuraci\u00f3n del sitio.  Elegir el club recientemente grabado.  Un t\u00edtulo para el sitio: ser\u00e1 el que aparezca en los buscadores.  Slider  es una caracteristica que permite poner varias im\u00e1genes en el encabezado de la p\u00e1gina principal en forma de  carousel . Dejarlo sin activar ya que ser\u00e1 algo que veas despu\u00e9s.  Copiar los enlaces a las redes sociales. Esto desplegar\u00e1 los accesos en el pi\u00e9 de p\u00e1gina.  Grabar    Ir a  Ver el sitio  en el men\u00fa superior derecho.  Los siguientes pasos podr\u00edan ser:  Agregar  actividades  Agregar  noticias  Agregar  cultura",
            "title": "Como empezar"
        },
        {
            "location": "/guia-usuario/actividades/",
            "text": "Actividades\n\n\nHay distintas actividades desarrolladas.\n\n\nFutbol\n\n\nAcceso: > Administrador > Futbol\n\n\nCaracter\u00edsticas:\n\n\n\n\nPosibilidad de agregar \ncategor\u00edas\n.\n\n\nPuede ingresar \ntorneos\n, \nfixtures\n y \npartidos\n.\n\n\nContempla los \nprofesores\n.\n\n\nAdministra d\u00edas de \nentrenamientos\n.\n\n\nRelaciona \nnoticias\n.\n\n\nRelaciona \ngaleria de im\u00e1genes\n.\n\n\n\n\nArtes marciales\n\n\nAcceso: > Administrador > Artes marciales\n\n\nCaracter\u00edsticas:\n\n\n\n\nPuede ingresar \ntorneos\n.\n\n\nContempla los \nprofesores\n.\n\n\nAdministra d\u00edas de \nentrenamientos\n.\n\n\nRelaciona \nnoticias\n.\n\n\nRelaciona \ngaleria de im\u00e1genes\n.\n\n\n\n\nDanzas\n\n\nAcceso: > Administrador > Danzas\n\n\nCaracter\u00edsticas:\n\n\n\n\nPuede ingresar \ntorneos\n.\n\n\nContempla los \nprofesores\n.\n\n\nAdministra d\u00edas de \nentrenamientos\n.\n\n\nRelaciona \nnoticias\n.\n\n\nRelaciona \ngaleria de im\u00e1genes\n.\n\n\n\n\nGimnasias\n\n\nAcceso: > Administrador > Gimnasio\n\n\nCaracter\u00edsticas:\n\n\n\n\nContempla los \nprofesores\n.\n\n\nAdministra d\u00edas de \nentrenamientos\n.\n\n\nRelaciona \nnoticias\n.\n\n\nRelaciona \ngaleria de im\u00e1genes\n.\n\n\n\n\nActividades Sociales\n\n\nAcceso: > Administrador > Actividades Sociales\n\n\nCaracter\u00edsticas:\n\n\n\n\nContempla los \nprofesores\n.\n\n\nAdministra d\u00edas de \nentrenamientos\n.\n\n\nRelaciona \nnoticias\n.\n\n\nRelaciona \ngaleria de im\u00e1genes\n.\n\n\n\n\nProfesores\n\n\nAcceso: > Administrador > Profesores",
            "title": "Actividades"
        },
        {
            "location": "/guia-usuario/actividades/#actividades",
            "text": "Hay distintas actividades desarrolladas.",
            "title": "Actividades"
        },
        {
            "location": "/guia-usuario/actividades/#futbol",
            "text": "Acceso: > Administrador > Futbol  Caracter\u00edsticas:   Posibilidad de agregar  categor\u00edas .  Puede ingresar  torneos ,  fixtures  y  partidos .  Contempla los  profesores .  Administra d\u00edas de  entrenamientos .  Relaciona  noticias .  Relaciona  galeria de im\u00e1genes .",
            "title": "Futbol"
        },
        {
            "location": "/guia-usuario/actividades/#artes-marciales",
            "text": "Acceso: > Administrador > Artes marciales  Caracter\u00edsticas:   Puede ingresar  torneos .  Contempla los  profesores .  Administra d\u00edas de  entrenamientos .  Relaciona  noticias .  Relaciona  galeria de im\u00e1genes .",
            "title": "Artes marciales"
        },
        {
            "location": "/guia-usuario/actividades/#danzas",
            "text": "Acceso: > Administrador > Danzas  Caracter\u00edsticas:   Puede ingresar  torneos .  Contempla los  profesores .  Administra d\u00edas de  entrenamientos .  Relaciona  noticias .  Relaciona  galeria de im\u00e1genes .",
            "title": "Danzas"
        },
        {
            "location": "/guia-usuario/actividades/#gimnasias",
            "text": "Acceso: > Administrador > Gimnasio  Caracter\u00edsticas:   Contempla los  profesores .  Administra d\u00edas de  entrenamientos .  Relaciona  noticias .  Relaciona  galeria de im\u00e1genes .",
            "title": "Gimnasias"
        },
        {
            "location": "/guia-usuario/actividades/#actividades-sociales",
            "text": "Acceso: > Administrador > Actividades Sociales  Caracter\u00edsticas:   Contempla los  profesores .  Administra d\u00edas de  entrenamientos .  Relaciona  noticias .  Relaciona  galeria de im\u00e1genes .",
            "title": "Actividades Sociales"
        },
        {
            "location": "/guia-usuario/actividades/#profesores",
            "text": "Acceso: > Administrador > Profesores",
            "title": "Profesores"
        },
        {
            "location": "/guia-usuario/club/",
            "text": "Club\n\n\nAcceso: > Administrador > Clubes\n\n\nLas propiedades son:\n\n\n\n\nNombre\n: es el nombre completo.\n\n\nNombre Corto\n: es el nombre escrito simplificado, se usa para ubicar en partes donde el nombre completo puede resultar malo para el dise\u00f1o.\n\n\nDirecci\u00f3n\n\n\nLocalidad\n\n\nProvincia\n\n\nDescripci\u00f3n\n: es un p\u00e1rrafo que se ubica en la pantalla principal. Intanta dar un mensaje de bienvenida. Es tamb\u00eden el texto que se mostrar\u00e1 en los buscadores de internet.\n\n\nHistoria\n: es la historia del club. Este se mostrar\u00e1 como un popup desde varias ubicaci\u00f3nes.\n\n\nCorreo electr\u00f3nico\n\n\nTel\u00e9fono\n\n\nOtra Url Web\n\n\nEscudo\n: formato imagen preferentemente 200x200.\n\n\nColores\n: color primario, secundario y terciario. \nEstos colores van a dar estilo al sitio.\n\n\n\n\nClubes Rivales\n\n\nAcceso: > Administrador > Clubes rivales",
            "title": "Club"
        },
        {
            "location": "/guia-usuario/club/#club",
            "text": "Acceso: > Administrador > Clubes  Las propiedades son:   Nombre : es el nombre completo.  Nombre Corto : es el nombre escrito simplificado, se usa para ubicar en partes donde el nombre completo puede resultar malo para el dise\u00f1o.  Direcci\u00f3n  Localidad  Provincia  Descripci\u00f3n : es un p\u00e1rrafo que se ubica en la pantalla principal. Intanta dar un mensaje de bienvenida. Es tamb\u00eden el texto que se mostrar\u00e1 en los buscadores de internet.  Historia : es la historia del club. Este se mostrar\u00e1 como un popup desde varias ubicaci\u00f3nes.  Correo electr\u00f3nico  Tel\u00e9fono  Otra Url Web  Escudo : formato imagen preferentemente 200x200.  Colores : color primario, secundario y terciario.  Estos colores van a dar estilo al sitio.",
            "title": "Club"
        },
        {
            "location": "/guia-usuario/club/#clubes-rivales",
            "text": "Acceso: > Administrador > Clubes rivales",
            "title": "Clubes Rivales"
        },
        {
            "location": "/guia-usuario/configuracion/",
            "text": "Configuracion\n\n\nAcceso: > Administrador > Configuraciones\n\n\nEn construcci\u00f3n",
            "title": "Configuracion"
        },
        {
            "location": "/guia-usuario/configuracion/#configuracion",
            "text": "Acceso: > Administrador > Configuraciones",
            "title": "Configuracion"
        },
        {
            "location": "/guia-usuario/configuracion/#en-construccion",
            "text": "",
            "title": "En construcci\u00f3n"
        },
        {
            "location": "/guia-usuario/cultura/",
            "text": "Cultural\n\n\nAcceso: > Administrador > Cultura\n\n\nEn construcci\u00f3n",
            "title": "Cultural"
        },
        {
            "location": "/guia-usuario/cultura/#cultural",
            "text": "Acceso: > Administrador > Cultura",
            "title": "Cultural"
        },
        {
            "location": "/guia-usuario/cultura/#en-construccion",
            "text": "",
            "title": "En construcci\u00f3n"
        },
        {
            "location": "/guia-usuario/galeria/",
            "text": "Galeria de im\u00e1genes\n\n\nAcceso: > Administrador > Galeria\n\n\nEn construcci\u00f3n",
            "title": "Galeria de im\u00e1genes"
        },
        {
            "location": "/guia-usuario/galeria/#galeria-de-imagenes",
            "text": "Acceso: > Administrador > Galeria",
            "title": "Galeria de im\u00e1genes"
        },
        {
            "location": "/guia-usuario/galeria/#en-construccion",
            "text": "",
            "title": "En construcci\u00f3n"
        },
        {
            "location": "/guia-usuario/noticias/",
            "text": "Noticias\n\n\nAcceso: > Administrador > Noticias\n\n\nEn construcci\u00f3n",
            "title": "Noticias"
        },
        {
            "location": "/guia-usuario/noticias/#noticias",
            "text": "Acceso: > Administrador > Noticias",
            "title": "Noticias"
        },
        {
            "location": "/guia-usuario/noticias/#en-construccion",
            "text": "",
            "title": "En construcci\u00f3n"
        },
        {
            "location": "/guia-usuario/sliders/",
            "text": "Sliders\n\n\nAcceso: > Administrador > Sliders\n\n\nEn construcci\u00f3n",
            "title": "Sliders"
        },
        {
            "location": "/guia-usuario/sliders/#sliders",
            "text": "Acceso: > Administrador > Sliders",
            "title": "Sliders"
        },
        {
            "location": "/guia-usuario/sliders/#en-construccion",
            "text": "",
            "title": "En construcci\u00f3n"
        },
        {
            "location": "/guia-usuario/torneos/",
            "text": "Torneos\n\n\nAcceso: > Administrador > Torneos\n\n\nFixtures\n\n\nAcceso: > Administrador > Fixtures\n\n\nPartidos de futbol\n\n\nAcceso: > Administrador > Partidos de Futbol\n\n\nEn construcci\u00f3n",
            "title": "Torneos"
        },
        {
            "location": "/guia-usuario/torneos/#torneos",
            "text": "Acceso: > Administrador > Torneos",
            "title": "Torneos"
        },
        {
            "location": "/guia-usuario/torneos/#fixtures",
            "text": "Acceso: > Administrador > Fixtures",
            "title": "Fixtures"
        },
        {
            "location": "/guia-usuario/torneos/#partidos-de-futbol",
            "text": "Acceso: > Administrador > Partidos de Futbol",
            "title": "Partidos de futbol"
        },
        {
            "location": "/guia-usuario/torneos/#en-construccion",
            "text": "",
            "title": "En construcci\u00f3n"
        },
        {
            "location": "/guia-usuario/usuarios/",
            "text": "Usuarios\n\n\nAcceso: > Administrador > Usuarios\n\n\nEn construcci\u00f3n",
            "title": "Usuarios"
        },
        {
            "location": "/guia-usuario/usuarios/#usuarios",
            "text": "Acceso: > Administrador > Usuarios",
            "title": "Usuarios"
        },
        {
            "location": "/guia-usuario/usuarios/#en-construccion",
            "text": "",
            "title": "En construcci\u00f3n"
        }
    ]
}